{
  "name": "IntelliJ IDEA",
  "version": "2021.2",
  "buildNumber": "212.4746.92",
  "productCode": "IU",
  "dataDirectoryName": "IntelliJIdea2021.2",
  "svgIconPath": "bin/idea.svg",
  "launch": [
    {
      "os": "Windows",
      "launcherPath": "bin/idea64.exe",
      "javaExecutablePath": "jbr/bin/java.exe",
      "vmOptionsFilePath": "bin/idea64.exe.vmoptions"
    }
  ],
  "customProperties": []
}